{
    "extends" : "tslint:recommended",
"defaultSeverity" : "error",
"jsRules" : {},
"rules": {
    "no-console" : {
        "severity" : "warning",
        "options"  :  ["debug", "info", "log", "time", "timeEnd", "trace"]
    }
} 
}